0.3 2.16122 30163 0
0.31 2.16784 31203 0
0.32 2.17584 32216 0
0.33 2.18465 33215 0
0.34 2.19281 34210 0
0.35 2.20456 35295 0
0.36 2.21504 36347 0
0.37 2.22334 37356 0
0.38 2.23185 38383 0
0.39 2.24176 39395 0
0.4 2.24892 40338 0
0.41 2.25542 40881 0
0.42 2.26726 41862 0
0.43 2.27742 42888 0
0.44 2.28675 43881 0
0.45 2.29878 44920 0
0.46 2.30989 45913 0
0.47 2.32028 47181 0
0.48 2.33167 48138 0
0.49 2.3451 49114 0
0.5 2.36112 50124 0
0.51 2.3758 51139 0
0.52 2.39004 51490 0
0.53 2.40733 52490 0
0.54 2.42482 53535 0
0.55 2.44208 54588 0
0.56 2.46058 55589 0
0.57 2.48048 57145 0
0.58 2.49832 58123 0
0.59 2.51971 59096 0
0.6 2.54183 60119 0
0.61 2.56709 61140 0
0.62 2.57782 61945 0
0.63 2.60342 62961 0
0.64 2.62947 63935 0
0.65 2.65609 64987 0
0.66 2.69732 65875 0
0.67 2.72255 66833 0
0.68 2.75706 67832 0
0.69 2.79565 68847 0
0.7 2.83922 69870 0
0.71 2.88303 71199 0
0.72 2.92525 72175 0
0.73 2.97508 73231 0
0.74 3.02394 74200 0
0.75 3.03765 74951 0
0.76 3.09396 75983 0
0.77 3.16734 77025 0
0.78 3.23833 78084 0
0.79 3.33482 79165 0
0.8 3.42169 80149 0
0.81 3.50178 81155 0
0.82 3.60834 82159 0
0.83 3.70341 83134 0
0.84 3.83187 84124 0
0.85 3.97466 85090 0
0.86 4.08612 85971 0
0.87 4.27551 86991 0
0.88 4.49593 87984 0
0.89 4.70538 88938 0
0.9 5.01578 89965 0
0.91 5.3542 90971 0
0.92 5.76257 91946 0
0.93 6.66829 92946 0
0.94 7.55264 93966 0
0.95 8.64092 94943 0
0.96 10.9595 96206 0
0.97 13.7061 97147 0
0.98 18.79 98109 0
0.99 31.7571 99079 0
1 114.109 99529 0
