0.3 2.38726 150439 0
0.31 2.40476 155405 0
0.32 2.42188 159900 0
0.33 2.43936 164582 0
0.34 2.46204 169857 0
0.35 2.48203 174941 0
0.36 2.50397 180479 0
0.37 2.52543 185250 0
0.38 2.53973 189295 0
0.39 2.56954 195160 0
0.4 2.59462 199854 0
0.41 2.62276 204346 0
0.42 2.64529 208939 0
0.43 2.67979 215575 0
0.44 2.70012 219705 0
0.45 2.73607 225277 0
0.46 2.76464 230002 0
0.47 2.78874 234967 0
0.48 2.81834 239722 0
0.49 2.85279 244515 0
0.5 2.89462 250702 0
0.51 2.92606 254238 0
0.52 2.97174 260404 0
0.53 3.00741 265369 0
0.54 3.05335 270322 0
0.55 3.08067 274859 0
0.56 3.13596 279479 0
0.57 3.18117 285257 0
0.58 3.23454 290108 0
0.59 3.26833 294142 0
0.6 3.32753 299601 0
0.61 3.39716 305223 0
0.62 3.43518 309126 0
0.63 3.51462 314261 0
0.64 3.60692 321077 0
0.65 3.64964 324643 0
0.66 3.74102 330131 0
0.67 3.81561 335747 0
0.68 3.89329 339955 0
0.69 3.98122 345499 0
0.7 4.07433 350242 0
0.71 4.21173 355811 0
0.72 4.30397 360790 0
0.73 4.40946 365502 0
0.74 4.51931 370483 0
0.75 4.60535 373562 0
0.76 4.80072 380286 0
0.77 4.9792 384820 0
0.78 5.13967 388816 0
0.79 5.34484 395946 0
0.8 5.55402 399969 0
0.81 5.77878 405563 0
0.82 6.03236 409760 0
0.83 6.30363 415351 0
0.84 6.6894 420053 0
0.85 6.84934 424337 0
0.86 7.43775 430017 0
0.87 7.65296 433678 0
0.88 8.49756 440428 0
0.89 9.10001 444924 0
0.9 9.82296 449927 0
0.91 10.6011 454357 0
0.92 11.9964 459714 0
0.93 13.9446 465212 0
0.94 15.7044 469592 0
0.95 18.7172 474995 0
0.96 24.5045 479852 0
0.97 31.1061 485224 0
0.98 42.8949 489352 0
0.99 102.528 494634 0
1 200.311 497425 0
