0.1 2.07338 14882 0
0.2 2.17532 29848 0
0.3 2.32369 44990 0
0.4 2.51019 59895 0
0.45 2.62602 67372 0
0.49 2.73386 73352 0
0.53 2.86414 79340 0
0.57 3.01434 85367 0
0.61 3.1944 91466 0
0.65 3.40848 97432 0
0.69 3.67064 103395 0
0.73 4.00835 109469 0
0.77 4.45292 115377 0
0.81 5.06037 121389 0
0.82 5.25311 122917 0
0.83 5.46357 124348 0
0.84 5.71141 125856 0
0.85 5.99508 127374 0
0.86 6.27881 128872 0
0.87 6.59298 130295 0
0.88 7.00347 131787 0
0.89 7.43412 133253 0
0.9 8.01345 134764 0
0.91 8.76975 136322 0
0.92 9.73064 137853 0
0.93 10.9185 139318 0
0.94 12.6161 140858 0
0.95 14.8445 142328 0
0.96 18.3837 143859 0
0.97 23.6923 145410 0
0.98 35.2078 146880 0
0.99 61.0728 148298 0
1 162.735 149315 0
